Case Study: Working With Afrobarometer • retroharmonize
…
Analyze the results

The numeric form of these trust variables is comparable with the numeric averages of the Eurobarometer trust variables.

harmonized_waves %>%
  mutate_at ( vars(starts_with("trust")),
              ~as_numeric(.)*within_country_weighting_factor) %>%
  select ( -all_of("within_country_weighting_factor")) %>%
  group_by ( country ) %>%
  summarize_if ( is.numeric, mean, na.rm=TRUE)
#> # A tibble: 40 x 13
#>    country trust_president trust_parliamen~ trust_national_~ trust_your_elec~
#>    <chr>             <dbl>            <dbl>            <dbl>            <dbl>
#>  1 Algeria           0.518            0.356            0.360            0.377
#>  2 Benin             0.505            0.517            0.467            0.508
#>  3 Botswa~           0.671          304.             216.               0.543
#>  4 Burkin~           0.674          112.              90.9              0.640
#>  5 Burundi           0.795            0.697            0.735            0.750
#>  6 Cabo V~           0.488           66.2             66.6              0.371
#>  7 Camero~           0.645          377.             220.               0.447
#>  8 Cape V~           0.552            0.455            0.460            0.418
#>  9 Cote d~           0.578            0.501            0.456            0.424
#> 10 Côte d~           0.621         1229.            1210.               0.475
#> # ... with 30 more rows, and 8 more variables: trust_the_ruling_party <dbl>,
#> #   trust_opposition_political_parties <dbl>, trust_police <dbl>,
#> #   trust_army <dbl>, trust_courts_of_law <dbl>,
#> #   trust_traditional_leaders <dbl>, trust_religious_leaders <dbl>, year <dbl>
And the factor presentation, without weighting:

require(tidyr)
#> Loading required package: tidyr
harmonized_waves %>%
  select ( -all_of("within_country_weighting_factor")) %>%
  mutate_if ( is.labelled_spss_survey, as_factor) %>%
  tidyr::pivot_longer ( starts_with("trust"),
                        names_to  = "institution",
                        values_to = "category") %>%
  mutate ( institution = gsub("^trust_", "", institution) ) %>%
  group_by ( country, institution, category ) %>%
  summarize ( n = n())
#> `summarise()` regrouping output by 'country', 'institution' (override with `.groups` argument)
#> # A tibble: 2,570 x 4
#> # Groups:   country, institution [440]
#>    country institution   category        n
#>    <chr>   <chr>         <fct>       <int>
#>  1 Algeria army          not_at_all    160
#>  2 Algeria army          little        297
#>  3 Algeria army          somewhat      296
#>  4 Algeria army          a_lot         387
#>  5 Algeria army          do_not_know    60
#>  6 Algeria courts_of_law not_at_all    259
#>  7 Algeria courts_of_law little        414
#>  8 Algeria courts_of_law somewhat      283
#>  9 Algeria courts_of_law a_lot         149
#> 10 Algeria courts_of_law do_not_know    95
#> # ... with 2,560 more rows
…
