Case Study: Working With Eurobarometer • retroharmonize
…
We have a problem: the invalid values should go out to the missing range, but they are not always correctly labelled as missing. The names in the tibble should also be fixed.

numeric_harmonization %>%
  group_by(country_id) %>%
  summarize_if ( is.numeric, mean, na.rm=TRUE)
#> # A tibble: 38 x 14
#>    country_id weight_poststrat `trust_european~ `trust_national~
#>    <chr>                 <dbl>            <dbl>            <dbl>
#>  1 AL                     1.00            0.750            0.515
#>  2 AT                     1.00        11126.               0.544
#>  3 BE                     1.00        10227.              64.8  
#>  4 BG                     1.00        21616.               0.277
#>  5 CY                     1.00        19855.               0.458
#>  6 CY-TCC                 1.00            0.657        76647.   
#>  7 CZ                     1.00        19581.               0.245
#>  8 DE-E                   1.00         8305.             136.   
#>  9 DE-W                   1.00         9172.              52.1  
#> 10 DK                     1.00        10429.               0.537
#> # ... with 28 more rows, and 10 more variables:
#> #   `trust_european-parliament` <dbl>, `trust_national-parliament` <dbl>,
#> #   `trust_justice-system` <dbl>, trust_police <dbl>, trust_army <dbl>,
#> #   `trust_political-parties` <dbl>, trust_companies <dbl>,
#> #   `trust_european-union` <dbl>, `trust_united-nations` <dbl>,
#> #   weight_extrapolated <dbl>
…
