Pull a survey from a survey list — pull_survey • retroharmonize
…
    Value

    A single survey identified by id or filename.

    Examples

survey_list <- dir (
  here( "inst", "examples"))[grepl(".rds",
                        dir (here( "inst", "examples")))]

example_surveys <- read_surveys(
  here( "inst", "examples", survey_list))

pull_survey(example_surveys, id = "ZA5913")
#> # A tibble: 35 x 38
#>    rowid doi   version uniqid isocntry       p1    p3      p4      p5 nuts      
#>  * <chr> <chr> <chr>    <dbl> <chr>    <dbl+lb> <dbl> <dbl+l> <dbl+l> <chr+lbl> 
#>  1 ZA59~ doi:~ 2.0.0 ~ 1.13e7 NL        8 [Tue~    27 1 [Two~ 1 [Exc~ NL21 [Ove~
#>  2 ZA59~ doi:~ 2.0.0 ~ 1.13e7 NL        8 [Tue~    31 1 [Two~ 1 [Exc~ NL33 [Zui~
#>  3 ZA59~ doi:~ 2.0.0 ~ 1.13e7 NL       10 [Thu~    26 1 [Two~ 1 [Exc~ NL32 [Noo~
#>  4 ZA59~ doi:~ 2.0.0 ~ 1.13e7 NL       14 [Mon~    23 1 [Two~ 1 [Exc~ NL22 [Gel~
#>  5 ZA59~ doi:~ 2.0.0 ~ 1.13e7 NL       10 [Thu~    31 2 [Thr~ 1 [Exc~ NL33 [Zui~
#>  6 ZA59~ doi:~ 2.0.0 ~ 1.13e7 NL        8 [Tue~    33 1 [Two~ 1 [Exc~ NL41 [Noo~
#>  7 ZA59~ doi:~ 2.0.0 ~ 1.13e7 NL       10 [Thu~    21 1 [Two~ 1 [Exc~ NL13 [Dre~
#>  8 ZA59~ doi:~ 2.0.0 ~ 1.13e7 NL       10 [Thu~    44 1 [Two~ 1 [Exc~ NL13 [Dre~
#>  9 ZA59~ doi:~ 2.0.0 ~ 1.13e7 NL        5 [Sat~    19 1 [Two~ 2 [Fai~ NL34 [Zee~
#> 10 ZA59~ doi:~ 2.0.0 ~ 1.13e7 NL       14 [Mon~    22 1 [Two~ 1 [Exc~ NL22 [Gel~
#> # ... with 25 more rows, and 28 more variables: d7 <dbl+lbl>, d8 <dbl+lbl>,
#> #   d25 <dbl+lbl>, d60 <dbl+lbl>, qa10_3 <dbl+lbl>, qa10_2 <dbl+lbl>,
#> #   qa10_1 <dbl+lbl>, qa7_4 <dbl+lbl>, qa7_2 <dbl+lbl>, qa7_3 <dbl+lbl>,
#> #   qa7_1 <dbl+lbl>, qa7_5 <dbl+lbl>, qd3_1 <dbl+lbl>, qd3_2 <dbl+lbl>,
#> #   qd3_3 <dbl+lbl>, qd3_4 <dbl+lbl>, qd3_5 <dbl+lbl>, qd3_6 <dbl+lbl>,
#> #   qd3_7 <dbl+lbl>, qd3_8 <dbl+lbl>, qd3_9 <dbl+lbl>, qd3_10 <dbl+lbl>,
#> #   qd3_11 <dbl+lbl>, qd3_12 <dbl+lbl>, qd3_13 <dbl+lbl>, qd3_14 <dbl+lbl>,
#> #   w1 <dbl>, w3 <dbl>
…
